{
  "variables": {
    "product": {
      "name": "KANE458"
    }
  },
  "plugins" : [
    "anchors",
    "expandable-chapters",
    "theme-kanemanual@git+https://bitbucket.org/kaneinternational/theme",
    "styles-sass-fix"
  ],
  "pluginsConfig": {
    "theme-kanemanual": {
      "baseUrl": null,
      "excludeDefaultStyles": false,
      "doNotHideChildrenChapters" : false
    }
  },
  "styles": {
    "website": "./styles/website.scss"
  },
  "sharing": {
    "google": null,
    "facebook": null,
    "twitter": null
  },
  "_comment": "theme-kanemanual@/home/alex/code/kane/manuals/kane458/node_modules/gitbook-plugin-theme-kanemanual",
  "_comment": "theme-kanemanual@git+https://bitbucket.org/kaneinternational/theme"
}
